{
    "name": "BovineLabs.Common",
    "references": [
        "GUID:e0cd26848372d4e5c891c569017e11f1",
        "GUID:734d92eba21c94caba915361bd5ac177",
        "GUID:d8b63aba1907145bea998dd612889d6b",
        "GUID:8819f35a0fc84499b990e90a4ca1911f",
        "GUID:7a450cf7ca9694b5a8bfa3fd83ec635a",
        "GUID:a5baed0c9693541a5bd947d336ec7659",
        "GUID:63afb046c8423dd448ae7aba042ea63d",
        "GUID:2665a8d13d1b3f18800f46e256720795",
        "GUID:8a2eafa29b15f444eb6d74f94a930e1d"
    ],
    "includePlatforms": [],
    "excludePlatforms": [],
    "allowUnsafeCode": true,
    "overrideReferences": false,
    "precompiledReferences": [],
    "autoReferenced": true,
    "defineConstraints": [],
    "versionDefines": []
}